Machine Learning
…
## # A tibble: 2,000 x 42
##    `7up` lasagna pepsi   yop red.wine cheese   bbq bulmers mayonnaise
##    <dbl>   <dbl> <dbl> <dbl>    <dbl>  <dbl> <dbl>   <dbl>      <dbl>
##  1     0       0     0     0        0      0     0       0          0
##  2     0       0     0     0        0      0     0       0          0
##  3     0       0     0     0        0      0     0       0          0
##  4     0       0     0     2        1      0     0       0          0
##  5     0       0     0     0        0      0     0       2          0
##  6     0       0     0     0        0      0     0       0          0
##  7     1       1     0     0        0      0     1       0          0
##  8     0       0     0     0        0      0     0       0          0
##  9     0       1     0     0        0      0     0       0          0
## 10     0       0     0     0        0      0     0       0          0
## #  with 1,990 more rows, and 33 more variables: horlics <dbl>,
## #   chicken.tikka <dbl>, milk <dbl>, mars <dbl>, coke <dbl>,
## #   lottery <dbl>, bread <dbl>, pizza <dbl>, sunny.delight <dbl>,
## #   ham <dbl>, lettuce <dbl>, kronenbourg <dbl>, leeks <dbl>, fanta <dbl>,
## #   tea <dbl>, whiskey <dbl>, peas <dbl>, newspaper <dbl>, muesli <dbl>,
## #   white.wine <dbl>, carrots <dbl>, spinach <dbl>, pate <dbl>,
## #   instant.coffee <dbl>, twix <dbl>, potatoes <dbl>, fosters <dbl>,
## #   soup <dbl>, toad.in.hole <dbl>, coco.pops <dbl>, kitkat <dbl>,
## #   broccoli <dbl>, cigarettes <dbl>
…
