…
```{r data-grocery}
# URL to download/read in the data
url <- "https://koalaverse.github.io/homlr/data/my_basket.csv"

# Access data
my_basket <- readr::read_csv(url)

# Print dimensions
dim(my_basket)
## [1] 2000   42

# Peek at response variable
my_basket
## # A tibble: 2,000 x 42
##    `7up` lasagna pepsi   yop red.wine cheese   bbq bulmers mayonnaise
##    <dbl>   <dbl> <dbl> <dbl>    <dbl>  <dbl> <dbl>   <dbl>      <dbl>
##  1     0       0     0     0        0      0     0       0          0
##  2     0       0     0     0        0      0     0       0          0
##  3     0       0     0     0        0      0     0       0          0
##  4     0       0     0     2        1      0     0       0          0
##  5     0       0     0     0        0      0     0       2          0
##  6     0       0     0     0        0      0     0       0          0
##  7     1       1     0     0        0      0     1       0          0
##  8     0       0     0     0        0      0     0       0          0
##  9     0       1     0     0        0      0     0       0          0
## 10     0       0     0     0        0      0     0       0          0
## # … with 1,990 more rows, and 33 more variables: horlics <dbl>,
## #   chicken.tikka <dbl>, milk <dbl>, mars <dbl>, coke <dbl>,
## #   lottery <dbl>, bread <dbl>, pizza <dbl>, sunny.delight <dbl>,
## #   ham <dbl>, lettuce <dbl>, kronenbourg <dbl>, leeks <dbl>, fanta <dbl>,
## #   tea <dbl>, whiskey <dbl>, peas <dbl>, newspaper <dbl>, muesli <dbl>,
## #   white.wine <dbl>, carrots <dbl>, spinach <dbl>, pate <dbl>,
## #   instant.coffee <dbl>, twix <dbl>, potatoes <dbl>, fosters <dbl>,
## #   soup <dbl>, toad.in.hole <dbl>, coco.pops <dbl>, kitkat <dbl>,
## #   broccoli <dbl>, cigarettes <dbl>
```
…
Most models require that the predictors take numeric form. There are
exceptions; for example, tree-based models naturally handle numeric or
categorical features. However, even tree-based models can benefit from
preprocessing categorical features. The following sections will discuss
a few of the more common approaches to engineer categorical features.

### 3.6.1 Lumping

Sometimes features will contain levels that have very few observations.
For example, there are 28 unique neighborhoods represented in the Ames
housing data but several of them only have a few observations.

```{r lumping-low-counts}
count(ames_train, Neighborhood) %>% arrange(n)
## # A tibble: 28 x 2
##    Neighborhood                                n
##    <fct>                                   <int>
##  1 Landmark                                    1
##  2 Green_Hills                                 2
##  3 Greens                                      7
##  4 Blueste                                     9
##  5 Northpark_Villa                            17
##  6 Briardale                                  18
##  7 Veenker                                    20
##  8 Bloomington_Heights                        21
##  9 South_and_West_of_Iowa_State_University    30
## 10 Meadow_Village                             30
## # … with 18 more rows
```

```{r lumping-numeric-low-counts}
count(ames_train, Screen_Porch) %>% arrange(n)
## # A tibble: 93 x 2
##    Screen_Porch     n
##           <int> <int>
##  1           40     1
##  2           80     1
##  3           92     1
##  4           94     1
##  5           99     1
##  6          104     1
##  7          109     1
##  8          110     1
##  9          111     1
## 10          117     1
## # … with 83 more rows
…
